[
    {
        "name": "Amphitheatro A",
        "capacity": 120
    },
    {
        "name": "Amphitheatro B",
        "capacity": 174
    },
    {
        "name": "A113",
        "capacity": 77
    },
    {
        "name": "A121",
        "capacity": 56
    },
    {
        "name": "A125",
        "capacity": 59
    },
    {
        "name": "H204",
        "capacity": 59
    },
    {
        "name": "H206",
        "capacity": 26
    },
    {
        "name": "H208",
        "capacity": 26
    },
    {
        "name": "H311",
        "capacity": 24
    },
    {
        "name": "H313",
        "capacity": 48
    }
]
